<svg width="100%" height="100%" viewBox="0 0 128 128" version="1.1" xmlns="http://www.w3.org/2000/svg" xmlns:xlink="http://www.w3.org/1999/xlink" xml:space="preserve" xmlns:serif="http://www.serif.com/" style="fill-rule:evenodd;clip-rule:evenodd;stroke-linejoin:round;stroke-miterlimit:2;">
<style>
    .color {fill: #B2E5FC;}
</style>
    <path d="M82.325,94.386L123,94.386L123,104.093L67.803,104.093L67.803,95.351L106.164,44.374L68.381,44.374L68.381,34.538L121.072,34.538L121.072,42.959L82.325,94.386Z" class="color"/>
    <path d="M8,107.107L17.566,14L43.837,16.701C51.934,17.534 58.909,20.06 64.763,24.281C70.617,28.502 74.887,34.089 77.575,41.043C80.305,48.002 81.251,55.767 80.414,64.341L79.803,70.288C78.9,79.07 76.405,86.589 72.317,92.847C68.272,99.108 62.914,103.684 56.244,106.574C49.616,109.468 42.121,110.529 33.76,109.755L8,107.107ZM28.801,25.366L21.304,98.329L34.216,99.656C43.677,100.629 51.33,98.444 57.176,93.099C63.064,87.76 66.567,79.654 67.684,68.783L68.242,63.348C69.329,52.775 67.679,44.312 63.293,37.959C58.954,31.568 52.23,27.861 43.119,26.838L28.801,25.366Z" class="color"/>
</svg>
