<?xml version="1.0" encoding="UTF-8" standalone="no"?>
<!DOCTYPE svg PUBLIC "-//W3C//DTD SVG 1.1//EN" "http://www.w3.org/Graphics/SVG/1.1/DTD/svg11.dtd">
<svg width="100%" height="100%" viewBox="0 0 512 512" version="1.1" xmlns="http://www.w3.org/2000/svg" xmlns:xlink="http://www.w3.org/1999/xlink" xml:space="preserve" xmlns:serif="http://www.serif.com/" style="fill-rule:evenodd;clip-rule:evenodd;stroke-linejoin:round;stroke-miterlimit:2;">
    <g transform="matrix(1.42294,0,0,1.42294,412.773,181.86)">
        <g transform="matrix(1.53032,0,0,1.5582,-662.036,-509.81)">
            <circle cx="360.618" cy="360.618" r="104.618" style="fill:rgb(0,125,59);"/>
        </g>
        <g transform="matrix(5.6429,0,0,5.6429,-208.926,-63.5761)">
            <path d="M34.9,10.454L34.9,30.546L29.929,33.418L29.929,13.325L17.499,6.147L5.071,13.322L5.071,33.418L0.1,30.546L0.1,10.454L17.499,0.407L34.9,10.454ZM17.501,40.593L10.042,36.286L10.042,16.194L15.014,13.323L15.014,33.418L17.499,34.926L19.986,33.418L19.986,13.325L24.958,16.194L24.958,36.286L17.501,40.593Z" style="fill:rgb(232,93,34);fill-rule:nonzero;"/>
        </g>
    </g>
</svg>
