<?xml version="1.0" encoding="UTF-8" standalone="no"?>
<!DOCTYPE svg PUBLIC "-//W3C//DTD SVG 1.1//EN" "http://www.w3.org/Graphics/SVG/1.1/DTD/svg11.dtd">
<svg width="100%" height="100%" viewBox="0 0 512 512" version="1.1" xmlns="http://www.w3.org/2000/svg" xmlns:xlink="http://www.w3.org/1999/xlink" xml:space="preserve" xmlns:serif="http://www.serif.com/" style="fill-rule:evenodd;clip-rule:evenodd;stroke-linejoin:round;stroke-miterlimit:2;">
    <g transform="matrix(1.42294,0,0,1.42294,412.773,181.86)">
        <path d="M0,104.055C-1.509,104.587 -3.045,105.052 -4.521,105.662C-15.772,110.313 -27.342,113.705 -39.534,114.63C-63.25,116.429 -84.493,111.762 -99.789,91.452C-101.787,88.799 -103.938,86.236 -106.235,83.842C-114.282,75.461 -122.065,66.776 -130.633,58.962C-138.797,51.517 -148.531,50.967 -158.479,55.6C-161.33,56.928 -164.199,58.329 -166.781,60.105C-174.63,65.5 -183.354,66.455 -192.488,65.698C-202.53,64.866 -212.221,62.895 -220.775,56.757C-211.771,84.669 -198.393,109.643 -175.113,127.916C-135.886,158.708 -71.492,161.243 -28.762,134.149C-16.819,126.576 -6.86,117.041 0,104.055M-234.988,-37.475C-235.244,-35.127 -235.246,-32.758 -234.984,-30.411C-232.911,-11.78 -230.625,7.321 -228.839,26.468C-228.056,34.857 -224.002,40.432 -217.493,45.246C-201.256,57.254 -185.704,58.62 -169.896,48.873C-151.639,37.617 -134.694,39.005 -119.002,53.775C-111.64,60.704 -105.022,68.451 -98.274,76.013C-87.797,87.758 -77.204,98.86 -60.741,102.424C-44.759,105.884 -29.312,104.648 -13.453,101.543C2.347,98.45 10.725,89.546 12.872,74.034C13.465,69.755 14.068,65.413 13.982,61.114C13.652,44.584 5.021,36.841 -11.305,38.119C-12.787,38.235 -14.36,38.274 -15.711,38.807C-26.322,42.997 -36.778,47.61 -47.512,51.445C-53.644,53.635 -60.239,56.027 -66.566,55.871C-85.23,55.412 -99.434,41.368 -96.147,22.65C-94.469,13.089 -91.747,3.492 -87.959,-5.429C-79.773,-24.706 -70.317,-43.436 -61.981,-62.652C-59.253,-68.941 -58.001,-75.972 -56.775,-82.791C-55.802,-88.206 -58.769,-92.068 -64.129,-92.758C-68.672,-93.343 -73.517,-93.875 -77.91,-92.935C-96.218,-89.02 -114.435,-84.656 -132.632,-80.236C-152.475,-75.415 -172.222,-70.413 -192.974,-71.91C-204.568,-72.746 -213.893,-76.12 -218.653,-87.991C-219.441,-89.953 -221.084,-91.915 -223.861,-92.909C-225.076,-93.344 -226.451,-92.944 -227.22,-91.909C-228.435,-90.272 -228.368,-88.873 -229.195,-87.258C-229.563,-86.54 -229.702,-85.667 -229.793,-84.848C-231.511,-69.292 -233.21,-53.733 -234.988,-37.475M-43.576,-80.766C-45.773,-73.676 -47.311,-66.292 -50.291,-59.55C-59.566,-38.564 -69.577,-17.906 -78.876,3.07C-81.47,8.922 -83.146,15.333 -84.275,21.662C-87.882,41.873 -70.27,48.056 -57.717,43.552C-51.65,41.376 -45.737,38.674 -39.964,35.79C-29.576,30.604 -18.785,27.278 -7.109,26.932C9.972,26.427 23.451,37.167 25.181,54.333C27.635,78.689 20.293,100.506 4.842,119.248C-13.596,141.614 -38.39,153.648 -65.972,159.935C-76.542,162.345 -87.655,162.535 -98.554,163.23C-102.768,163.497 -104.605,164.5 -104.191,169.021C-103.813,173.15 -103.882,177.361 -104.192,181.502C-104.469,185.19 -103.255,186.661 -99.527,187.489C-84.81,190.753 -70.193,194.477 -55.521,197.949C-51.741,198.843 -48.141,199.916 -48.671,204.793C-49.068,208.445 -52.961,209.808 -58.448,208.536C-72.334,205.321 -86.151,201.761 -100.131,199.033C-105.523,197.981 -111.435,197.948 -116.841,198.934C-132.162,201.728 -147.344,205.288 -162.581,208.543C-163.393,208.717 -164.388,209.232 -164.995,208.945C-167.316,207.844 -170.528,207.012 -171.524,205.094C-173.077,202.104 -170.675,199.764 -167.646,198.817C-162.426,197.187 -157.144,195.76 -151.9,194.206C-141.41,191.099 -130.955,187.868 -120.427,184.901C-117.304,184.02 -116.056,182.434 -116.287,179.229C-116.49,176.41 -116.282,173.565 -116.329,170.733C-116.472,162.077 -114.905,163.06 -123.678,161.542C-175.656,152.55 -208.039,120.504 -227.683,73.273C-236.642,51.733 -241.033,29.092 -243.593,6.01C-246.134,-16.904 -246.972,-39.849 -244.568,-62.805C-243.564,-72.39 -242.123,-81.966 -240.191,-91.403C-238.892,-97.752 -235.91,-103.578 -228.463,-104.676C-221.165,-105.753 -211.083,-100.813 -208.319,-93.528C-205.077,-84.982 -198.511,-83.616 -191.048,-82.718C-176.835,-81.007 -163.437,-85.215 -149.842,-88.172C-124.901,-93.598 -99.97,-99.079 -74.937,-104.043C-70.261,-104.97 -64.938,-104.324 -60.246,-103.11C-49.51,-100.329 -44.609,-92.896 -43.576,-80.766" style="fill-rule:nonzero;"/>
    </g>
</svg>
